﻿[
  {
    "outputFile": "App_Plugins/AssessmentQuestions/lib/Markdown.Editor.css",
    "inputFile": "App_Plugins/AssessmentQuestions/lib/Markdown.Editor.less"
  },
  {
    "outputFile": "css/style.css",
    "inputFile": "css/stylesheets/theme/style.sass"
  },
  {
    "outputFile": "App_Plugins/AssessmentQuestions/lib/assessment.css",
    "inputFile": "App_Plugins/AssessmentQuestions/lib/assessment.less"
  }
]